[
    {
        "id":78625,
        "user_id":0,
        "title":"Joyful Music - All Saints Episcopal Church",
        "description":"Fun. Fabulous. Uplifting. Magical. These are just a few of the ways that parents describe Music Together. Each week in Music Together classrooms around the world, babies, toddlers, preschoolers, big kids--and the grownups who love them!--gather to make music as a community. Offered at more than 3,000 locations and 40 countries, our early childhood music classes give families with children from birth through age 8 the chance to get in touch with their inner musician and connect with other families. \r\n\r\nWe're on a mission to make the world a better place by making it more musical. And you can be part of it by joining one of our music classes in your neighborhood!",
        "program":{
            "ID":78625,
            "post_author":"72",
            "post_date":"2018-02-22 09:18:13",
            "post_date_gmt":"2018-02-22 14:18:13",
            "post_content":"Fun. Fabulous. Uplifting. Magical. These are just a few of the ways that parents describe Music Together. Each week in Music Together classrooms around the world, babies, toddlers, preschoolers, big kids--and the grownups who love them!--gather to make music as a community. Offered at more than 3,000 locations and 40 countries, our early childhood music classes give families with children from birth through age 8 the chance to get in touch with their inner musician and connect with other families. \r\n\r\nWe're on a mission to make the world a better place by making it more musical. And you can be part of it by joining one of our music classes in your neighborhood!",
            "post_title":"Joyful Music - All Saints Episcopal Church",
            "post_excerpt":"",
            "post_status":"publish",
            "comment_status":"open",
            "ping_status":"closed",
            "post_password":"",
            "post_name":"joyful-music-all-saints-episcopal-church",
            "to_ping":"",
            "pinged":"",
            "post_modified":"2018-03-08 09:40:24",
            "post_modified_gmt":"2018-03-08 14:40:24",
            "post_content_filtered":"Joyful Music - All Saints Episcopal Church, Fun. Fabulous. Uplifting. Magical. These are just a few of the ways that parents describe Music Together. Each week in Music Together classrooms around the world, babies, toddlers, preschoolers, big kids--and the grownups who love them!--gather to make music as a community. Offered at more than 3,000 locations and 40 countries, our early childhood music classes give families with children from birth through age 8 the chance to get in touch with their inner musician and connect with other families. We're on a mission to make the world a better place by making it more musical. And you can be part of it by joining one of our music classes in your neighborhood!, 79 Central St, Stoneham MA 02180-2040, www.joyfulmusic.com, 978-589-1161, Parent &amp; Child Music, Matt2",
            "post_parent":0,
            "guid":"https:\/\/kgr3.test\/programs\/joyful-music-all-saints-episcopal-church\/",
            "menu_order":0,
            "post_type":"listing",
            "post_mime_type":"",
            "comment_count":"0",
            "filter":"raw",
            "oldID":null,
            "ETL_TS":"2018-03-08 09:40:25"
        },
        "program_url":"https:\/\/kgr3.test\/programs\/joyful-music-all-saints-episcopal-church\/",
        "address":"79 Central St, Stoneham MA 02180-2040",
        "rating":"0",
        "program_type":"basic",
        "program_status":"active",
        "phone":"978-589-1161",
        "website":"www.joyfulmusic.com",
        "contact_name":"",
        "contact_email":"Director@joyfulmusic.com",
        "genders":[
            "0-2"
        ],
        "ages":[
            "Boys",
            "Girls"
        ],
        "categories":{
            "3102":{
                "term_id":3102,
                "name":"Parent &amp; Child Music",
                "slug":"parent-child-music",
                "term_group":0,
                "term_taxonomy_id":3102,
                "taxonomy":"listing_category",
                "description":"<p>Mommy and Me music classes and programs are an invaluable way to introduce music and language to your child. Also, called parent and child music classes, these programs offer opportunities for parents to play, bond with, and move with their baby or toddler. Not only does the child benefit from the interaction, parents do as well. Mommy and me programs provide an opportunity for parents to get out of the house and interact with other new parents. <\/p>\r\n\r\n<p>KidGooRoo provides the most comprehensive listing of infant and toddler music classes and programs available online, with ratings and reviews from parents like you. <\/p>\r\n\r\n<p>We invite you to browse local Mommy and Me music programs. <\/p>\r\n",
                "parent":3100,
                "count":804,
                "filter":"raw",
                "term_icon":null,
                "ETL_TS":"2018-02-22 09:18:13"
            }
        },
        "images":[
            {
                "ID":78626,
                "post_author":"1",
                "post_date":"2018-02-22 10:02:32",
                "post_date_gmt":"2018-02-22 15:02:32",
                "post_content":"",
                "post_title":"music-together-logo",
                "post_excerpt":"",
                "post_status":"inherit",
                "comment_status":"open",
                "ping_status":"closed",
                "post_password":"",
                "post_name":"music-together-logo",
                "to_ping":"",
                "pinged":"",
                "post_modified":"2018-03-08 09:40:44",
                "post_modified_gmt":"2018-03-08 14:40:44",
                "post_content_filtered":"",
                "post_parent":0,
                "guid":"https:\/\/kgr3.test\/files\/2018\/02\/music-together-logo.png",
                "menu_order":0,
                "post_type":"attachment",
                "post_mime_type":"image\/png",
                "comment_count":"0",
                "filter":"raw",
                "oldID":null,
                "ETL_TS":"2018-03-08 09:40:45"
            }
        ],
        "reviews":[],
        "program_events":null,
        "program_news":null
    },
    {
        "id":78618,
        "user_id":0,
        "title":"Twinkle Together LLC - Firebird Books and Toy",
        "description":"Fun. Fabulous. Uplifting. Magical. These are just a few of the ways that parents describe Music Together. Each week in Music Together classrooms around the world, babies, toddlers, preschoolers, big kids--and the grownups who love them!--gather to make music as a community. Offered at more than 3,000 locations and 40 countries, our early childhood music classes give families with children from birth through age 8 the chance to get in touch with their inner musician and connect with other families. \r\n\r\nWe're on a mission to make the world a better place by making it more musical. And you can be part of it by joining one of our music classes in your neighborhood!",
        "program":{
            "ID":78618,
            "post_author":"72",
            "post_date":"2018-02-22 09:18:06",
            "post_date_gmt":"2018-02-22 14:18:06",
            "post_content":"Fun. Fabulous. Uplifting. Magical. These are just a few of the ways that parents describe Music Together. Each week in Music Together classrooms around the world, babies, toddlers, preschoolers, big kids--and the grownups who love them!--gather to make music as a community. Offered at more than 3,000 locations and 40 countries, our early childhood music classes give families with children from birth through age 8 the chance to get in touch with their inner musician and connect with other families. \r\n\r\nWe're on a mission to make the world a better place by making it more musical. And you can be part of it by joining one of our music classes in your neighborhood!",
            "post_title":"Twinkle Together LLC - Firebird Books and Toy",
            "post_excerpt":"",
            "post_status":"publish",
            "comment_status":"open",
            "ping_status":"closed",
            "post_password":"",
            "post_name":"twinkle-together-llc-firebird-books-and-toy",
            "to_ping":"",
            "pinged":"",
            "post_modified":"2018-03-08 09:40:43",
            "post_modified_gmt":"2018-03-08 14:40:43",
            "post_content_filtered":"Twinkle Together LLC - Firebird Books and Toy, Fun. Fabulous. Uplifting. Magical. These are just a few of the ways that parents describe Music Together. Each week in Music Together classrooms around the world, babies, toddlers, preschoolers, big kids--and the grownups who love them!--gather to make music as a community. Offered at more than 3,000 locations and 40 countries, our early childhood music classes give families with children from birth through age 8 the chance to get in touch with their inner musician and connect with other families. We're on a mission to make the world a better place by making it more musical. And you can be part of it by joining one of our music classes in your neighborhood!, 2800 East 6th Avenue, Denver CO 80206, www.ttllc-mt.com, 303-333-1474, Parent &amp; Child Music, Matt2",
            "post_parent":0,
            "guid":"https:\/\/kgr3.test\/programs\/twinkle-together-llc-firebird-books-and-toy\/",
            "menu_order":0,
            "post_type":"listing",
            "post_mime_type":"",
            "comment_count":"0",
            "filter":"raw",
            "oldID":null,
            "ETL_TS":"2018-03-08 09:40:45"
        },
        "program_url":"https:\/\/kgr3.test\/programs\/twinkle-together-llc-firebird-books-and-toy\/",
        "address":"2800 East 6th Avenue, Denver CO 80206",
        "rating":"0",
        "program_type":"basic",
        "program_status": "active",
        "phone":"303-333-1474",
        "website":"www.ttllc-mt.com",
        "contact_name":"",
        "contact_email":"karee@TwinkleTogether.com",
        "genders":[
            "0-2"
        ],
        "ages":[
            "Boys",
            "Girls"
        ],
        "categories":{
            "3102":{
                "term_id":3102,
                "name":"Parent &amp; Child Music",
                "slug":"parent-child-music",
                "term_group":0,
                "term_taxonomy_id":3102,
                "taxonomy":"listing_category",
                "description":"<p>Mommy and Me music classes and programs are an invaluable way to introduce music and language to your child. Also, called parent and child music classes, these programs offer opportunities for parents to play, bond with, and move with their baby or toddler. Not only does the child benefit from the interaction, parents do as well. Mommy and me programs provide an opportunity for parents to get out of the house and interact with other new parents. <\/p>\r\n\r\n<p>KidGooRoo provides the most comprehensive listing of infant and toddler music classes and programs available online, with ratings and reviews from parents like you. <\/p>\r\n\r\n<p>We invite you to browse local Mommy and Me music programs. <\/p>\r\n",
                "parent":3100,
                "count":804,
                "filter":"raw",
                "term_icon":null,
                "ETL_TS":"2018-02-22 09:18:13"
            }
        },
        "images":[
            {
                "ID":78626,
                "post_author":"1",
                "post_date":"2018-02-22 10:02:32",
                "post_date_gmt":"2018-02-22 15:02:32",
                "post_content":"",
                "post_title":"music-together-logo",
                "post_excerpt":"",
                "post_status":"inherit",
                "comment_status":"open",
                "ping_status":"closed",
                "post_password":"",
                "post_name":"music-together-logo",
                "to_ping":"",
                "pinged":"",
                "post_modified":"2018-03-08 09:40:44",
                "post_modified_gmt":"2018-03-08 14:40:44",
                "post_content_filtered":"",
                "post_parent":0,
                "guid":"https:\/\/kgr3.test\/files\/2018\/02\/music-together-logo.png",
                "menu_order":0,
                "post_type":"attachment",
                "post_mime_type":"image\/png",
                "comment_count":"0",
                "filter":"raw",
                "oldID":null,
                "ETL_TS":"2018-03-08 09:40:45"
            }
        ],
        "reviews":[

        ],
        "program_events":null,
        "program_news":null
    },
    {
        "id":12200,
        "user_id":0,
        "title":"This is just a test",
        "description":"test",
        "program":{
            "ID":12200,
            "post_author":"72",
            "post_date":"2016-09-05 12:46:37",
            "post_date_gmt":"2016-09-05 16:46:37",
            "post_content":"test",
            "post_title":"This is just a test",
            "post_excerpt":"",
            "post_status":"publish",
            "comment_status":"open",
            "ping_status":"closed",
            "post_password":"",
            "post_name":"this-is-just-a-test",
            "to_ping":"",
            "pinged":"",
            "post_modified":"2018-02-14 17:41:24",
            "post_modified_gmt":"2018-02-14 22:41:24",
            "post_content_filtered":"This is just a test, test, Matt St, Avenel, NJ 07001, 732-767-84782, Clarinet, Double Reed Instruments, Sailing, Woodwind, Matt2",
            "post_parent":0,
            "guid":"https:\/\/kgr3.test\/programs\/this-is-just-a-test\/",
            "menu_order":0,
            "post_type":"listing",
            "post_mime_type":"",
            "comment_count":"0",
            "filter":"raw",
            "oldID":null,
            "ETL_TS":"2018-02-14 17:41:24"
        },
        "program_url":"https:\/\/kgr3.test\/programs\/this-is-just-a-test\/",
        "address":"Matt St, Avenel, NJ 07001",
        "rating":"0",
        "program_type":"basic",
        "program_status":"active",
        "phone":"732-767-84782",
        "website":"",
        "contact_name":"Matt Matt",
        "contact_email":"matthewlittlehale@gmail.com",
        "genders":[
            "3-5"
        ],
        "ages":[
            "Boys",
            "Girls"
        ],
        "categories":{
            "3097":{
                "term_id":3097,
                "name":"Clarinet",
                "slug":"clarinet",
                "term_group":0,
                "term_taxonomy_id":3097,
                "taxonomy":"listing_category",
                "description":"",
                "parent":3081,
                "count":888,
                "filter":"raw",
                "term_icon":null,
                "ETL_TS":"2018-01-17 13:03:20"
            },
            "3082":{
                "term_id":3082,
                "name":"Double Reed Instruments",
                "slug":"double-reed-instruments",
                "term_group":0,
                "term_taxonomy_id":3082,
                "taxonomy":"listing_category",
                "description":"",
                "parent":3081,
                "count":386,
                "filter":"raw",
                "term_icon":null,
                "ETL_TS":"2018-01-05 15:53:06"
            },
            "3164":{
                "term_id":3164,
                "name":"Sailing",
                "slug":"sailing",
                "term_group":0,
                "term_taxonomy_id":3164,
                "taxonomy":"listing_category",
                "description":"",
                "parent":3130,
                "count":123,
                "filter":"raw",
                "term_icon":null,
                "ETL_TS":"2018-01-18 14:20:29"
            },
            "3081":{
                "term_id":3081,
                "name":"Woodwind",
                "slug":"woodwind",
                "term_group":0,
                "term_taxonomy_id":3081,
                "taxonomy":"listing_category",
                "description":"",
                "parent":3071,
                "count":5,
                "filter":"raw",
                "term_icon":null,
                "ETL_TS":"2018-01-16 17:00:44"
            }
        },
        "images":[
            {
                "ID":78530,
                "post_author":"72",
                "post_date":"2018-02-14 17:41:24",
                "post_date_gmt":"2018-02-14 22:41:24",
                "post_content":"",
                "post_title":"KGR-Bestof-2017",
                "post_excerpt":"",
                "post_status":"inherit",
                "comment_status":"open",
                "ping_status":"closed",
                "post_password":"",
                "post_name":"kgr-bestof-2017",
                "to_ping":"",
                "pinged":"",
                "post_modified":"2018-02-14 17:41:24",
                "post_modified_gmt":"2018-02-14 22:41:24",
                "post_content_filtered":"",
                "post_parent":12200,
                "guid":"https:\/\/kgr3.test\/files\/2016\/09\/KGR-Bestof-2017.png",
                "menu_order":0,
                "post_type":"attachment",
                "post_mime_type":"image\/png",
                "comment_count":"0",
                "filter":"raw",
                "oldID":null,
                "ETL_TS":"2018-02-14 17:41:24"
            }
        ],
        "reviews":[

        ],
        "program_events":null,
        "program_news":null
    }
]